{
    "Global": {
	"Comment" : "offline analysis"
    },

    "ADC": {
	"Number of DT5730": 1,
  "Number of VX2740": 1
    },

    "Baseline": {
      "Mode":"lolx",
      "Pedestal":20,
      "DecayTau":3500.0,
      "Threshold":-200,
      "NanoSecPerSample":8.0,
    	"RestorationWindow":5,
    	"BinJumpSlope":40,
    	"BinJumpWindow":40
    },

    "Pulse": {
    	"Sigma":1.3,
      "Polarity":-1,
      "Threshold":-100,
      "ResetWindow":20,
      "PeakScan":10,
      "DerivativeWindow":30,
      "NumMins":5,
    	"Amplitude":20,
      "MaxAmplitude":10000,
      "Width":100,
      "Pedestal":10,
      "BoardType":"VX2740",
      "EndThresh":1.2
    },

    "Waveform": {
      "Canvas":true,
      "Enabled":true,
      "Persistency":false,
      "Persistency Channel":0,
      "Persistency Events Limit":2000,
      "Persistency Max":400,
      "Persistency Min":-50,
      "Save PDF":false,
      "Save Events Limit":100,
      "Num Channels":11,
      "WF Minimum":0,
      "WF Maximum":1280
    },

    "Analysis":{
      "BoardType":"VX2740"
    }
}
