{
    "Global": {
	"Comment" : "VERA fixed parameters"
    },

    "ADC": {
	"Number of V1730": 1
    },

    "Baseline": {
  	"Mode": "mode",
	"Pedestal": 50
    },

    "Filter": {
	"Name":"Moving Average",
	"Par0":100,
	"Par1":false
    },

    "Pulse": {
	"Fixed":false,
	"Sigma":1.5,
	"Amplitude":40,
	"Duration":40,
	"Charge":{
	    "before":100,
	    "total":300
	}
    },

    "Fit": {
	"Filtered":false,
	"Before Pulse":50,
	"Pulse Length":600,
	"Floating Parameters":false,
	"kappa":0.98,
	"sigma":1.0,
	"tau short":0.3,
	"tau long":300.0
    },

    "Plot": {
	"Canvas":true,
	"Channel":0,
	"Persistency":false,
	"Persistency Channel":0,
	"Persistency Events Limit":2000,
	"Save PDF":false,
	"Save Events Limit":100,
	"Raw WF Minimum":12000,
	"Raw WF Maximum":16000
    },

    "Laser": {
        "Trigger Channel": -1,
        "Trigger Threshold": 500,
        "Trigger Width": 4
    },

    "ROI": {
        "min": 2630,
        "max charge": 2730,
        "max peak": 2660
    }
}

