{
    "Global": {
	"Comment" : "HAICU offline"
    },

    "ADC": {
	"Number of V1730": 1
    },

    "Baseline": {
  	"Mode":"mode",
	"Pedestal":50
    },

    "Filter": {
	"Name":"AR",
	"Par0":10.0
    },

    "Pulse": {
	"Amplitude":4,
	"MAgate":18,
	"MinCharge":4
    },

    "ROI":{
	"min":2160,
	"max charge":2190,
	"max peak":2190,
	"filter min": 2160,
	"filter max charge":2190,
	"filter max peak":2190
    },

    "Plot": {
	"Canvas":true,
	"Channel":0,
	"Save PDF":false,
	"Save Events Limit":100,
	"Raw WF Minimum":-50,
	"Raw WF Maximum":16500
    }
}

