{
  "Global": {
    "Comment" : "SPE Calibration Table - Run 1777 v1740, scaling on all PE",
    "Date":20220505,
    "Author":"David Gallacher"
  },

  "SPECharge":
  {
    "Ch_0":151.7,
    "Ch_1":151.7,
    "Ch_2":151.7,
    "Ch_3":151.7,
    "Ch_4":151.7,
    "Ch_5":151.7,
    "Ch_6":151.7,
    "Ch_7":151.7,
    "Ch_8":151.7,
    "Ch_9":151.7,
    "Ch_10":151.7,
    "Ch_11":151.7,
    "Ch_12":151.7,
    "Ch_13":151.7,
    "Ch_14":151.7,
    "Ch_15":151.7,
    "Ch_16":151.7,
    "Ch_17":151.7,
    "Ch_18":151.7,
    "Ch_19":151.7,
    "Ch_20":151.7,
    "Ch_21":151.7,
    "Ch_22":151.7,
    "Ch_23":151.7,
    "Ch_24":151.7,
    "Ch_25":151.7,
    "Ch_26":151.7,
    "Ch_27":151.7,
    "Ch_28":151.7,
    "Ch_29":151.7,
    "Ch_30":151.7,
    "Ch_31":151.7
  },

  "SPEAmplitude":
  {
    "Ch_0":20.4,
    "Ch_1":20.4,
    "Ch_2":20.4,
    "Ch_3":20.4,
    "Ch_4":20.4,
    "Ch_5":20.4,
    "Ch_6":20.4,
    "Ch_7":20.4,
    "Ch_8":20.4,
    "Ch_9":20.4,
    "Ch_10":20.4,
    "Ch_11":20.4,
    "Ch_12":20.4,
    "Ch_13":20.4,
    "Ch_14":20.4,
    "Ch_15":20.4,
    "Ch_16":20.4,
    "Ch_17":20.4,
    "Ch_18":20.4,
    "Ch_19":20.4,
    "Ch_20":20.4,
    "Ch_21":20.4,
    "Ch_22":20.4,
    "Ch_23":20.4,
    "Ch_24":20.4,
    "Ch_25":20.4,
    "Ch_26":20.4,
    "Ch_27":20.4,
    "Ch_28":20.4,
    "Ch_29":20.4,
    "Ch_30":20.4,
    "Ch_31":20.4
  }
}
